<?xml version="1.0" encoding="UTF-8"?>
<svg height="16px" viewBox="0 0 16 16" width="16px" xmlns="http://www.w3.org/2000/svg">
    <path d="m 1.5 0.25 c -0.199219 0 -0.390625 0.082031 -0.53125 0.222656 c -0.292969 0.292969 -0.292969 0.765625 0 1.058594 l 4.03125 4.03125 v 0.4375 h -0.75 c -0.136719 0 -0.25 0.113281 -0.25 0.25 v 0.5 c 0 0.136719 0.113281 0.25 0.25 0.25 h 0.75 v 0.75 c 0 0.136719 0.113281 0.25 0.25 0.25 h 0.5 c 0.136719 0 0.25 -0.113281 0.25 -0.25 v -0.75 h 0.4375 l 7.53125 7.53125 c 0.140625 0.140625 0.332031 0.222656 0.53125 0.222656 s 0.390625 -0.082031 0.53125 -0.222656 c 0.289062 -0.289062 0.292969 -0.757812 0.007812 -1.050781 c 0.601563 -0.5625 0.90625 -1.398438 0.773438 -2.242188 l -1.089844 -6.914062 c -0.210937 -1.332031 -1.375 -2.324219 -2.722656 -2.324219 h -8 c -0.136719 0 -0.273438 0.011719 -0.40625 0.03125 l -1.5625 -1.558594 c -0.140625 -0.140625 -0.332031 -0.222656 -0.53125 -0.222656 z m 4.058594 3.75 h 6.441406 c 0.378906 0 0.6875 0.261719 0.746094 0.636719 l 1.09375 6.914062 c 0.03125 0.203125 -0.050782 0.398438 -0.214844 0.511719 l -3.695312 -3.695312 c 0.046874 -0.117188 0.070312 -0.242188 0.070312 -0.367188 c 0 -0.554688 -0.449219 -1 -1 -1 c -0.125 0 -0.25 0.023438 -0.367188 0.074219 z m -4.214844 0.03125 c -0.027344 0.09375 -0.050781 0.191406 -0.066406 0.292969 l -1.089844 6.914062 c -0.171875 1.085938 0.382812 2.164063 1.367188 2.65625 c 0.941406 0.472657 2.074218 0.382813 2.9375 -0.230469 l 1.777343 -1.269531 c 0.359375 -0.257812 0.789063 -0.394531 1.230469 -0.394531 h 1 c 0.414062 0 0.8125 0.121094 1.160156 0.34375 l -2.339844 -2.335938 c -0.796874 0.035157 -1.566406 0.292969 -2.214843 0.757813 l -1.777344 1.269531 c -0.257813 0.1875 -0.59375 0.210938 -0.878906 0.070313 c -0.210938 -0.105469 -0.324219 -0.324219 -0.285157 -0.554688 l 0.914063 -5.789062 z m 9.65625 0.96875 c -0.550781 0 -1 0.445312 -1 1 c 0 0.550781 0.449219 1 1 1 s 1 -0.449219 1 -1 c 0 -0.554688 -0.449219 -1 -1 -1 z m 0 0"/>
</svg>
