<?xml version="1.0" encoding="UTF-8"?>
<svg height="24px" viewBox="0 0 24 24" width="24px" xmlns="http://www.w3.org/2000/svg">
    <path d="m 12 0 c -6.628906 0 -12 5.371094 -12 12 s 5.371094 12 12 12 s 12 -5.371094 12 -12 s -5.371094 -12 -12 -12 z m -5.636719 6.179688 h 3.210938 l 1.835937 3.382812 c 0.15625 0.296875 0.308594 0.59375 0.460938 0.890625 c 0.066406 0.125 0.125 0.253906 0.1875 0.378906 c 0.0625 -0.125 0.121094 -0.25 0.179687 -0.378906 c 0.144531 -0.296875 0.296875 -0.59375 0.453125 -0.890625 l 1.75 -3.382812 h 3.195313 l -4.226563 7.476562 v 4.164062 h -2.726562 v -4.164062 z m 0 0"/>
</svg>
