<?xml version="1.0" encoding="UTF-8"?>
<svg height="24px" viewBox="0 0 24 24" width="24px" xmlns="http://www.w3.org/2000/svg">
    <path d="m 17 5 c 3.878906 0 7 3.121094 7 7 s -3.121094 7 -7 7 h -10 c -3.878906 0 -7 -3.121094 -7 -7 s 3.121094 -7 7 -7 z m -8.410156 3.382812 c -0.328125 0.015626 -0.589844 0.285157 -0.589844 0.617188 v 6 c 0 0.214844 0.109375 0.414062 0.292969 0.527344 c 0.183593 0.109375 0.410156 0.121094 0.601562 0.023437 l 6.210938 -3.105469 c 0.167969 -0.082031 0.277343 -0.257812 0.277343 -0.445312 c 0 -0.191406 -0.109374 -0.363281 -0.277343 -0.449219 l -6.210938 -3.105469 c -0.09375 -0.046874 -0.199219 -0.066406 -0.304687 -0.0625 z m 0 0"/>
</svg>
