<?xml version="1.0" encoding="UTF-8"?>
<svg height="24px" viewBox="0 0 24 24" width="24px" xmlns="http://www.w3.org/2000/svg">
    <path d="m 12 6 c 3.3125 0 6 2.6875 6 6 s -2.6875 6 -6 6 s -6 -2.6875 -6 -6 s 2.6875 -6 6 -6 z m 0 0"/>
    <path d="m 2.835938 8.007812 c 0.585937 -0.050781 1.164062 0.164063 1.578124 0.578126 c 0.78125 0.78125 0.78125 2.046874 0 2.828124 l -0.585937 0.585938 l 0.585937 0.585938 c 0.78125 0.78125 0.78125 2.046874 0 2.828124 c -0.414062 0.410157 -0.992187 0.621094 -1.574218 0.570313 c 1.585937 3.648437 5.183594 6.011719 9.160156 6.015625 c 5.523438 0 10 -4.476562 10 -10 s -4.476562 -10 -10 -10 c -3.976562 0 -7.578125 2.359375 -9.164062 6.007812 z m 0 0" fill-opacity="0.25098"/>
    <path d="m 0.292969 12.707031 l 2 2 c 0.390625 0.390625 1.023437 0.390625 1.414062 0 c 0.1875 -0.1875 0.292969 -0.441406 0.292969 -0.707031 s -0.105469 -0.519531 -0.292969 -0.707031 l -1.292969 -1.292969 l 1.292969 -1.292969 c 0.1875 -0.1875 0.292969 -0.441406 0.292969 -0.707031 s -0.105469 -0.519531 -0.292969 -0.707031 c -0.390625 -0.390625 -1.023437 -0.390625 -1.414062 0 l -2 2 c -0.3906252 0.390625 -0.3906252 1.023437 0 1.414062 z m 0 0"/>
</svg>
