<?xml version="1.0" encoding="UTF-8"?>
<svg height="24px" viewBox="0 0 24 24" width="24px" xmlns="http://www.w3.org/2000/svg">
    <path d="m 12 0 c -6.628906 0 -12 5.371094 -12 12 s 5.371094 12 12 12 s 12 -5.371094 12 -12 s -5.371094 -12 -12 -12 z m -1.863281 6.179688 h 3.703125 l 4.023437 11.640624 h -3.140625 l -0.691406 -2.242187 h -4.128906 l -0.710938 2.242187 h -3.054687 z m 1.855469 2.523437 c -0.132813 0.492187 -0.269532 0.960937 -0.402344 1.414063 c -0.25 0.871093 -0.507813 1.730468 -0.773438 2.585937 l -0.21875 0.679687 h 2.753906 l -0.207031 -0.679687 c -0.253906 -0.855469 -0.507812 -1.714844 -0.757812 -2.585937 c -0.128907 -0.449219 -0.261719 -0.925782 -0.394531 -1.414063 z m 0 0"/>
</svg>
