<?xml version="1.0" encoding="UTF-8"?>
<svg height="24px" viewBox="0 0 24 24" width="24px" xmlns="http://www.w3.org/2000/svg">
    <path d="m 9.5 0 c -0.828125 0 -1.5 0.671875 -1.5 1.5 v 5 c 0 0.828125 -0.671875 1.5 -1.5 1.5 h -5 c -0.828125 0 -1.5 0.671875 -1.5 1.5 v 5 c 0 0.828125 0.671875 1.5 1.5 1.5 h 5 c 0.828125 0 1.5 0.671875 1.5 1.5 v 5 c 0 0.828125 0.671875 1.5 1.5 1.5 h 5 c 0.828125 0 1.5 -0.671875 1.5 -1.5 v -5 c 0 -0.828125 0.671875 -1.5 1.5 -1.5 h 5 c 0.828125 0 1.5 -0.671875 1.5 -1.5 v -5 c 0 -0.828125 -0.671875 -1.5 -1.5 -1.5 h -5 c -0.828125 0 -1.5 -0.671875 -1.5 -1.5 v -5 c 0 -0.828125 -0.671875 -1.5 -1.5 -1.5 z m 0.5 19 c 0.257812 0 0.511719 0.097656 0.710938 0.292969 l 1.289062 1.292969 l 1.292969 -1.292969 c 0.390625 -0.386719 1.023437 -0.386719 1.414062 0 c 0.390625 0.390625 0.390625 1.023437 0 1.414062 l -2 2 c -0.253906 0.25 -0.621093 0.351563 -0.964843 0.257813 c -0.167969 -0.046875 -0.324219 -0.132813 -0.449219 -0.257813 l -2 -2 c -0.390625 -0.390625 -0.390625 -1.023437 0 -1.414062 c 0.195312 -0.195313 0.449219 -0.292969 0.707031 -0.292969 z m 0 0"/>
</svg>
