<?xml version="1.0" encoding="UTF-8"?>
<svg height="24px" viewBox="0 0 24 24" width="24px" xmlns="http://www.w3.org/2000/svg">
    <path d="m 5 21 c 0 1.105469 0.867188 1.792969 1.953125 2 c 4.066406 0.773438 6.097656 0.746094 10.09375 -0.007812 c 1.085937 -0.203126 1.953125 -0.886719 1.953125 -1.992188 v -4 c -0.007812 -6 3.253906 -17 -2 -17 h -10 c -1.105469 0 -2 0.894531 -2 2 z m 1.289062 -2.65625 c 0.0625 -0.121094 0.207032 -0.136719 0.304688 -0.039062 l 1.023438 1.023437 c 0.09375 0.097656 0.09375 0.257813 0 0.355469 l -1.023438 1.023437 c -0.097656 0.097657 -0.242188 0.085938 -0.304688 -0.039062 c -0.390624 -0.738281 -0.378906 -1.609375 0 -2.324219 z m 0.691407 -5.265625 c 0.015625 -2.140625 0.179687 -5.214844 0.714843 -7.125 c 0.148438 -0.53125 0.710938 -1.136719 1.230469 -1.328125 c 2.160157 -0.800781 3.882813 -0.859375 6.152344 -0.007812 c 0.515625 0.195312 1.039063 0.816406 1.164063 1.355468 c 0.523437 2.296875 0.738281 5.648438 0.761718 8.027344 c 0.003906 0.550781 -0.421875 1.15625 -0.949218 1.320312 c -2.832032 0.894532 -5.164063 0.917969 -8.105469 0 c -0.527344 -0.164062 -0.960938 -0.769531 -0.964844 -1.320312 c -0.003906 -0.308594 -0.007813 -0.617188 -0.003906 -0.921875 z m 0.320312 8.332031 l 1.019531 -1.019531 c 0.097657 -0.097656 0.257813 -0.097656 0.355469 0 l 1.019531 1.019531 c 0.097657 0.097656 0.085938 0.242188 -0.039062 0.304688 c -0.722656 0.378906 -1.589844 0.378906 -2.316406 0 c -0.121094 -0.0625 -0.136719 -0.203125 -0.035156 -0.304688 z m 0.042969 -4.113281 c 0.722656 -0.378906 1.589844 -0.378906 2.316406 0 c 0.121094 0.066406 0.132813 0.210937 0.039063 0.304687 l -1.023438 1.019532 c -0.097656 0.097656 -0.253906 0.097656 -0.351562 0 l -1.019531 -1.019532 c -0.101563 -0.097656 -0.089844 -0.238281 0.039062 -0.304687 z m 2.039062 2.03125 l 1.023438 -1.019531 c 0.09375 -0.097656 0.238281 -0.082032 0.300781 0.039062 c 0.378907 0.726563 0.378907 1.59375 0 2.316406 c -0.0625 0.125 -0.207031 0.136719 -0.300781 0.039063 l -1.023438 -1.019531 c -0.097656 -0.097656 -0.097656 -0.257813 0 -0.355469 z m 3.90625 -1 c 0.0625 -0.121094 0.207032 -0.132813 0.304688 -0.039063 l 1.023438 1.027344 c 0.09375 0.097656 0.09375 0.257813 0 0.351563 l -1.023438 1.027343 c -0.097656 0.097657 -0.242188 0.082032 -0.304688 -0.039062 c -0.378906 -0.714844 -0.390624 -1.589844 0 -2.328125 z m 1.011719 3.066406 l 1.019531 -1.019531 c 0.097657 -0.09375 0.257813 -0.09375 0.355469 0 l 1.019531 1.019531 c 0.097657 0.097657 0.085938 0.242188 -0.039062 0.304688 c -0.722656 0.382812 -1.589844 0.382812 -2.316406 0 c -0.125 -0.0625 -0.132813 -0.207031 -0.039063 -0.304688 z m 0.042969 -4.109375 c 0.722656 -0.378906 1.589844 -0.378906 2.316406 0 c 0.121094 0.0625 0.132813 0.207032 0.039063 0.300782 l -1.023438 1.023437 c -0.097656 0.097656 -0.257812 0.097656 -0.351562 0 l -1.019531 -1.023437 c -0.101563 -0.101563 -0.085938 -0.238282 0.035156 -0.300782 z m 0 -16 c 0.722656 -0.378906 1.589844 -0.378906 2.316406 0 c 0.121094 0.0625 0.132813 0.207032 0.039063 0.300782 l -1.023438 1.023437 c -0.097656 0.097656 -0.257812 0.097656 -0.351562 0 l -1.019531 -1.023437 c -0.101563 -0.097657 -0.085938 -0.238282 0.035156 -0.300782 z m 2.039062 18.03125 l 1.023438 -1.023437 c 0.09375 -0.09375 0.238281 -0.082031 0.300781 0.039062 c 0.378907 0.726563 0.378907 1.59375 0 2.320313 c -0.0625 0.121094 -0.207031 0.132812 -0.300781 0.035156 l -1.023438 -1.019531 c -0.097656 -0.09375 -0.097656 -0.253907 0 -0.351563 z m 0 -16 l 1.023438 -1.023437 c 0.09375 -0.09375 0.238281 -0.082031 0.300781 0.039062 c 0.378907 0.726563 0.378907 1.59375 0 2.320313 c -0.0625 0.121094 -0.207031 0.132812 -0.300781 0.035156 l -1.023438 -1.019531 c -0.097656 -0.09375 -0.097656 -0.253907 0 -0.351563 z m 0 0"/>
</svg>
