<?xml version="1.0" encoding="UTF-8"?>
<svg height="24px" viewBox="0 0 24 24" width="24px" xmlns="http://www.w3.org/2000/svg">
    <path d="m 11 0 c -3.878906 0 -7 3.121094 -7 7 v 10 c 0 3.878906 3.121094 7 7 7 h 2 c 3.878906 0 7 -3.121094 7 -7 v -10 c 0 -3.878906 -3.121094 -7 -7 -7 z m 1 3 c 0.554688 0 1 0.445312 1 1 v 4 c 0 0.554688 -0.445312 1 -1 1 s -1 -0.445312 -1 -1 v -4 c 0 -0.554688 0.445312 -1 1 -1 z m 0 0"/>
</svg>
