<?xml version="1.0" encoding="UTF-8"?>
<svg height="24px" viewBox="0 0 24 24" width="24px" xmlns="http://www.w3.org/2000/svg">
    <path d="m 15.292969 7.292969 l -3.292969 3.292969 l -2.292969 -2.292969 c -0.390625 -0.386719 -1.023437 -0.386719 -1.414062 0 c -0.386719 0.390625 -0.386719 1.023437 0 1.414062 l 3 3 c 0.390625 0.386719 1.023437 0.386719 1.414062 0 l 4 -4 c 0.1875 -0.1875 0.292969 -0.441406 0.292969 -0.707031 s -0.105469 -0.519531 -0.292969 -0.707031 s -0.441406 -0.292969 -0.707031 -0.292969 s -0.519531 0.105469 -0.707031 0.292969 z m 0 0"/>
    <path d="m 12 1.5 c -5.800781 0 -10.5 4.699219 -10.5 10.5 s 4.699219 10.5 10.5 10.5 s 10.5 -4.699219 10.5 -10.5 s -4.699219 -10.5 -10.5 -10.5 z m 0 2.5 c 4.417969 0 8 3.582031 8 8 s -3.582031 8 -8 8 s -8 -3.582031 -8 -8 s 3.582031 -8 8 -8 z m 0 0"/>
</svg>
